00200010 R __STAB_BEGIN__
00202530 R __STAB_END__
00202531 R __STABSTR_BEGIN__
00203ba5 R __STABSTR_END__
00800020 T _start
0080002c t args_exist
00800033 T umain
00800047 T libmain
00800092 T exit
008000a4 T sys_cputs
008000c2 T sys_cgetc
008000e1 T sys_env_destroy
00800122 T sys_getenvid
00800141 T _panic
00800187 t putch
008001c8 T vcprintf
00800219 T cprintf
0080022d t printnum
008002da t getuint
00800314 t sprintputch
00800330 T printfmt
0080034d T vprintfmt
008006d9 T vsnprintf
0080072e T snprintf
00800748 T strlen
0080075e T strnlen
0080077d T strcpy
00800798 T strcat
008007ba T strncpy
008007e4 T strlcpy
0080081c T strcmp
0080083d T strncmp
00800870 T strchr
0080088d T strfind
008008a5 T memset
008008f2 T memmove
00800958 T memcpy
0080096b T memcmp
0080099e T memfind
008009bf T strtol
00800aa8 T __udivdi3
00800bb8 T __umoddi3
00800f50 r error_string
00801000 D binaryname
00801004 B thisenv
eec00000 A envs
ef000000 A pages
ef400000 A uvpt
ef7bd000 A uvpd
