00200010 R __STAB_BEGIN__
002028fc R __STAB_END__
002028fd R __STABSTR_BEGIN__
00204341 R __STABSTR_END__
00800020 T _start
0080002c t args_exist
00800033 T umain
00800047 T libmain
00800096 T exit
008000a8 T sys_cputs
008000c6 T sys_cgetc
008000e5 T sys_env_destroy
00800126 T sys_getenvid
00800145 T sys_yield
00800164 T sys_page_alloc
008001a7 T sys_page_map
008001e9 T sys_page_unmap
0080022b T sys_env_set_status
0080026d T sys_time_msec
0080028c T sys_env_set_pgfault_upcall
008002ce T sys_ipc_try_send
008002f1 T sys_ipc_recv
00800332 T _panic
00800378 t putch
008003b9 T vcprintf
0080040a T cprintf
0080041e t printnum
008004cb t getuint
00800505 t sprintputch
00800521 T printfmt
0080053e T vprintfmt
008008ca T vsnprintf
0080091f T snprintf
00800939 T strlen
0080094f T strnlen
0080096e T strcpy
00800989 T strcat
008009ab T strncpy
008009d5 T strlcpy
00800a0d T strcmp
00800a2e T strncmp
00800a61 T strchr
00800a7e T strfind
00800a96 T memset
00800ae3 T memmove
00800b49 T memcpy
00800b5c T memcmp
00800b8f T memfind
00800bb0 T strtol
00800c98 T __udivdi3
00800da8 T __umoddi3
00801180 r error_string
00802000 D binaryname
00802004 B thisenv
eec00000 A envs
ef000000 A pages
ef400000 A uvpt
ef7bd000 A uvpd
