00200010 R __STAB_BEGIN__
00202f74 R __STAB_END__
00202f75 R __STABSTR_BEGIN__
00204b79 R __STABSTR_END__
00800020 T _start
0080002c t args_exist
00800033 t check_regs
008003a0 t pgfault
0080044b T umain
00800562 T libmain
008005b1 T exit
008005c3 T _panic
00800609 t putch
0080064a T vcprintf
0080069b T cprintf
008006af t printnum
0080075c t getuint
00800796 t sprintputch
008007b2 T printfmt
008007cf T vprintfmt
00800b5b T vsnprintf
00800bb0 T snprintf
00800bca T strlen
00800be0 T strnlen
00800bff T strcpy
00800c1a T strcat
00800c3c T strncpy
00800c66 T strlcpy
00800c9e T strcmp
00800cbf T strncmp
00800cf2 T strchr
00800d0f T strfind
00800d27 T memset
00800d74 T memmove
00800dda T memcpy
00800ded T memcmp
00800e20 T memfind
00800e41 T strtol
00800f27 T sys_cputs
00800f45 T sys_cgetc
00800f64 T sys_env_destroy
00800fa5 T sys_getenvid
00800fc4 T sys_yield
00800fe3 T sys_page_alloc
00801026 T sys_page_map
00801068 T sys_page_unmap
008010aa T sys_env_set_status
008010ec T sys_time_msec
0080110b T sys_env_set_pgfault_upcall
0080114d T sys_ipc_try_send
00801170 T sys_ipc_recv
008011b1 T set_pgfault_handler
00801208 T _pgfault_upcall
00801230 T __udivdi3
00801340 T __umoddi3
00801800 r error_string
00802000 D binaryname
00802020 b after
00802060 b during
008020a0 b before
008020cc B thisenv
008020d0 B _pgfault_handler
eec00000 A envs
ef000000 A pages
ef400000 A uvpt
ef7bd000 A uvpd
