00200010 R __STAB_BEGIN__
00202914 R __STAB_END__
00202915 R __STABSTR_BEGIN__
00204377 R __STABSTR_END__
00800020 T _start
0080002c t args_exist
00800033 T umain
0080004a T libmain
00800099 T exit
008000ab T sys_cputs
008000c9 T sys_cgetc
008000e8 T sys_env_destroy
00800129 T sys_getenvid
00800148 T sys_yield
00800167 T sys_page_alloc
008001aa T sys_page_map
008001ec T sys_page_unmap
0080022e T sys_env_set_status
00800270 T sys_time_msec
0080028f T sys_env_set_pgfault_upcall
008002d1 T sys_ipc_try_send
008002f4 T sys_ipc_recv
00800335 T _panic
0080037b t putch
008003bc T vcprintf
0080040d T cprintf
00800421 t printnum
008004ce t getuint
00800508 t sprintputch
00800524 T printfmt
00800541 T vprintfmt
008008cd T vsnprintf
00800922 T snprintf
0080093c T strlen
00800952 T strnlen
00800971 T strcpy
0080098c T strcat
008009ae T strncpy
008009d8 T strlcpy
00800a10 T strcmp
00800a31 T strncmp
00800a64 T strchr
00800a81 T strfind
00800a99 T memset
00800ae6 T memmove
00800b4c T memcpy
00800b5f T memcmp
00800b92 T memfind
00800bb3 T strtol
00800c9c T __udivdi3
00800dac T __umoddi3
00801180 r error_string
00802000 D binaryname
00802004 B thisenv
eec00000 A envs
ef000000 A pages
ef400000 A uvpt
ef7bd000 A uvpd
