00200010 R __STAB_BEGIN__
00203550 R __STAB_END__
00203551 R __STABSTR_BEGIN__
002051d8 R __STABSTR_END__
00800020 T _start
0080002c t args_exist
00800033 T umain
00800195 T libmain
008001e4 T exit
008001f6 t putch
00800237 T vcprintf
00800288 T cprintf
0080029c t printnum
00800349 t getuint
00800383 t sprintputch
0080039f T printfmt
008003bc T vprintfmt
00800748 T vsnprintf
0080079d T snprintf
008007b7 T strlen
008007cd T strnlen
008007ec T strcpy
00800807 T strcat
00800829 T strncpy
00800853 T strlcpy
0080088b T strcmp
008008ac T strncmp
008008df T strchr
008008fc T strfind
00800914 T memset
00800961 T memmove
008009c7 T memcpy
008009da T memcmp
00800a0d T memfind
00800a2e T strtol
00800b14 T sys_cputs
00800b32 T sys_cgetc
00800b51 T sys_env_destroy
00800b92 T sys_getenvid
00800bb1 T sys_yield
00800bd0 T sys_page_alloc
00800c13 T sys_page_map
00800c55 T sys_page_unmap
00800c97 T sys_env_set_status
00800cd9 T sys_time_msec
00800cf8 T sys_env_set_pgfault_upcall
00800d3a T sys_ipc_try_send
00800d5d T sys_ipc_recv
00800d9e t pgfault
00800e50 T fork
0080104e T sfork
00801068 T ipc_recv
008010d0 T ipc_send
00801125 T ipc_find_env
00801169 T _panic
008011af T set_pgfault_handler
00801206 T _pgfault_upcall
00801230 T __udivdi3
00801340 T __umoddi3
00801780 r error_string
00802000 D str2
00802004 D str1
00802008 D binaryname
0080200c B thisenv
00802010 B _pgfault_handler
eec00000 A envs
ef000000 A pages
ef400000 A uvpt
ef7bd000 A uvpd
