00200010 R __STAB_BEGIN__
00202fd4 R __STAB_END__
00202fd5 R __STABSTR_BEGIN__
002053b6 R __STABSTR_END__
00800020 T _start
0080002c t args_exist
00800033 T umain
008000a1 T libmain
008000f0 T exit
00800102 t putch
00800143 T vcprintf
00800194 T cprintf
008001a8 t printnum
00800255 t getuint
0080028f t sprintputch
008002ab T printfmt
008002c8 T vprintfmt
00800654 T vsnprintf
008006a9 T snprintf
008006c3 T strlen
008006d9 T strnlen
008006f8 T strcpy
00800713 T strcat
00800735 T strncpy
0080075f T strlcpy
00800797 T strcmp
008007b8 T strncmp
008007eb T strchr
00800808 T strfind
00800820 T memset
0080086d T memmove
008008d3 T memcpy
008008e6 T memcmp
00800919 T memfind
0080093a T strtol
00800a20 T sys_cputs
00800a3e T sys_cgetc
00800a5d T sys_env_destroy
00800a9e T sys_getenvid
00800abd T sys_yield
00800adc T sys_page_alloc
00800b1f T sys_page_map
00800b61 T sys_page_unmap
00800ba3 T sys_env_set_status
00800be5 T sys_time_msec
00800c04 T sys_env_set_trapframe
00800c46 T sys_env_set_pgfault_upcall
00800c88 T sys_ipc_try_send
00800cab T sys_ipc_recv
00800cec T ipc_recv
00800d54 T ipc_send
00800da9 T ipc_find_env
00800ded T _panic
00800e34 T __udivdi3
00800f44 T __umoddi3
00801380 r error_string
00802000 D binaryname
00802004 B thisenv
eec00000 A envs
ef000000 A pages
ef400000 A uvpt
ef7bd000 A uvpd
