00200010 R __STAB_BEGIN__
00202efc R __STAB_END__
00202efd R __STABSTR_BEGIN__
00205298 R __STABSTR_END__
00800020 T _start
0080002c t args_exist
00800033 T handler
00800091 T umain
008000ca T libmain
00800119 T exit
0080012b T _panic
00800171 t putch
008001b2 T vcprintf
00800203 T cprintf
00800217 t printnum
008002c4 t getuint
008002fe t sprintputch
0080031a T printfmt
00800337 T vprintfmt
008006c3 T vsnprintf
00800718 T snprintf
00800732 T strlen
00800748 T strnlen
00800767 T strcpy
00800782 T strcat
008007a4 T strncpy
008007ce T strlcpy
00800806 T strcmp
00800827 T strncmp
0080085a T strchr
00800877 T strfind
0080088f T memset
008008dc T memmove
00800942 T memcpy
00800955 T memcmp
00800988 T memfind
008009a9 T strtol
00800a8f T sys_cputs
00800aad T sys_cgetc
00800acc T sys_env_destroy
00800b0d T sys_getenvid
00800b2c T sys_yield
00800b4b T sys_page_alloc
00800b8e T sys_page_map
00800bd0 T sys_page_unmap
00800c12 T sys_env_set_status
00800c54 T sys_time_msec
00800c73 T sys_env_set_trapframe
00800cb5 T sys_env_set_pgfault_upcall
00800cf7 T sys_ipc_try_send
00800d1a T sys_ipc_recv
00800d5b T set_pgfault_handler
00800db2 T _pgfault_upcall
00800ddc T __udivdi3
00800eec T __umoddi3
00801380 r error_string
00802000 D binaryname
00802004 B thisenv
00802008 B _pgfault_handler
eec00000 A envs
ef000000 A pages
ef400000 A uvpt
ef7bd000 A uvpd
