00200010 R __STAB_BEGIN__
00202b60 R __STAB_END__
00202b61 R __STABSTR_BEGIN__
00204e29 R __STABSTR_END__
00800020 T _start
0080002c t args_exist
00800033 T umain
00800065 T libmain
008000b4 T exit
008000c6 T sys_cputs
008000e4 T sys_cgetc
00800103 T sys_env_destroy
00800144 T sys_getenvid
00800163 T sys_yield
00800182 T sys_page_alloc
008001c5 T sys_page_map
00800207 T sys_page_unmap
00800249 T sys_env_set_status
0080028b T sys_time_msec
008002aa T sys_env_set_trapframe
008002ec T sys_env_set_pgfault_upcall
0080032e T sys_ipc_try_send
00800351 T sys_ipc_recv
00800392 T _panic
008003d8 t putch
00800419 T vcprintf
0080046a T cprintf
0080047e t printnum
0080052b t getuint
00800565 t sprintputch
00800581 T printfmt
0080059e T vprintfmt
0080092a T vsnprintf
0080097f T snprintf
00800999 T strlen
008009af T strnlen
008009ce T strcpy
008009e9 T strcat
00800a0b T strncpy
00800a35 T strlcpy
00800a6d T strcmp
00800a8e T strncmp
00800ac1 T strchr
00800ade T strfind
00800af6 T memset
00800b43 T memmove
00800ba9 T memcpy
00800bbc T memcmp
00800bef T memfind
00800c10 T strtol
00800cf8 T __udivdi3
00800e08 T __umoddi3
00801260 r error_string
00802000 D binaryname
00802004 B thisenv
eec00000 A envs
ef000000 A pages
ef400000 A uvpt
ef7bd000 A uvpd
