00200010 R __STAB_BEGIN__
00202e9c R __STAB_END__
00202e9d R __STABSTR_BEGIN__
00205221 R __STABSTR_END__
00800020 T _start
0080002c t args_exist
00800033 T handler
00800061 T umain
00800080 T libmain
008000cf T exit
008000e1 t putch
00800122 T vcprintf
00800173 T cprintf
00800187 t printnum
00800234 t getuint
0080026e t sprintputch
0080028a T printfmt
008002a7 T vprintfmt
00800633 T vsnprintf
00800688 T snprintf
008006a2 T strlen
008006b8 T strnlen
008006d7 T strcpy
008006f2 T strcat
00800714 T strncpy
0080073e T strlcpy
00800776 T strcmp
00800797 T strncmp
008007ca T strchr
008007e7 T strfind
008007ff T memset
0080084c T memmove
008008b2 T memcpy
008008c5 T memcmp
008008f8 T memfind
00800919 T strtol
008009ff T sys_cputs
00800a1d T sys_cgetc
00800a3c T sys_env_destroy
00800a7d T sys_getenvid
00800a9c T sys_yield
00800abb T sys_page_alloc
00800afe T sys_page_map
00800b40 T sys_page_unmap
00800b82 T sys_env_set_status
00800bc4 T sys_time_msec
00800be3 T sys_env_set_trapframe
00800c25 T sys_env_set_pgfault_upcall
00800c67 T sys_ipc_try_send
00800c8a T sys_ipc_recv
00800ccb T set_pgfault_handler
00800d22 T _pgfault_upcall
00800d4a T _panic
00800d90 T __udivdi3
00800ea0 T __umoddi3
008012c0 r error_string
00802000 D binaryname
00802004 B thisenv
00802008 B _pgfault_handler
eec00000 A envs
ef000000 A pages
ef400000 A uvpt
ef7bd000 A uvpd
