00200010 R __STAB_BEGIN__
00205f50 R __STAB_END__
00205f51 R __STABSTR_BEGIN__
00208fb0 R __STABSTR_END__
00800020 T _start
0080002c t args_exist
00800033 T sum
0080005c T umain
00800218 t devcons_close
00800222 t devcons_stat
0080023c t devcons_write
00800290 t devcons_read
008002cf T cputchar
008002eb T getchar
00800316 T iscons
00800342 T opencons
00800394 T libmain
008003e3 T exit
008003f5 T _panic
0080043b t putch
0080047c T vcprintf
008004cd T cprintf
008004e1 t printnum
0080058e t getuint
008005c8 t sprintputch
008005e4 T printfmt
00800601 T vprintfmt
0080098d T vsnprintf
008009e2 T snprintf
008009fc T strlen
00800a12 T strnlen
00800a31 T strcpy
00800a4c T strcat
00800a6e T strncpy
00800a98 T strlcpy
00800ad0 T strcmp
00800af1 T strncmp
00800b24 T strchr
00800b41 T strfind
00800b59 T memset
00800ba6 T memmove
00800c0c T memcpy
00800c1f T memcmp
00800c52 T memfind
00800c73 T strtol
00800d59 T sys_cputs
00800d77 T sys_cgetc
00800d96 T sys_env_destroy
00800dd7 T sys_getenvid
00800df6 T sys_yield
00800e15 T sys_page_alloc
00800e58 T sys_page_map
00800e9a T sys_page_unmap
00800edc T sys_env_set_status
00800f1e T sys_time_msec
00800f3d T sys_env_set_trapframe
00800f7f T sys_env_set_pgfault_upcall
00800fc1 T sys_ipc_try_send
00800fe4 T sys_ipc_recv
00801025 T fd2num
00801035 T fd2data
0080104c T fd_alloc
0080109b T fd_lookup
008010f2 T dev_lookup
00801145 T fd_close
008011c9 T close
008011f4 T close_all
00801217 T dup
00801301 T read
00801388 T readn
008013d1 T write
00801453 T seek
0080147c T ftruncate
008014fb T fstat
0080156f T stat
008015ae t fsipc
008015f9 t devfile_trunc
00801623 t devfile_flush
00801645 t devfile_stat
0080169e t devfile_write
008016e6 t devfile_read
00801768 T open
008017ef T sync
00801806 T spawn
00801d7e T spawnl
00801ded t devpipe_stat
00801e3b t devpipe_close
00801e65 t _pipeisclosed
00801ed1 t devpipe_write
00801f41 t devpipe_read
00801fb0 T pipe
008020fd T pipeisclosed
00802130 T wait
00802188 T ipc_recv
008021f0 T ipc_send
00802245 T ipc_find_env
00802289 T pageref
008022cc T __udivdi3
008023dc T __umoddi3
00802960 r error_string
00802a68 r devtab
00803000 D data
00804770 D devcons
0080478c D binaryname
00804790 D devfile
008047ac D devpipe
00805000 b fsenv.1554
00805020 B bss
00806790 B thisenv
00807000 B fsipcbuf
eec00000 A envs
ef000000 A pages
ef400000 A uvpt
ef7bd000 A uvpd
