00200010 R __STAB_BEGIN__
002037b4 R __STAB_END__
002037b5 R __STABSTR_BEGIN__
00205c92 R __STABSTR_END__
00800020 T _start
0080002c t args_exist
00800033 T umain
008000bc T libmain
0080010b T exit
0080011d t putch
0080015e T vcprintf
008001af T cprintf
008001c3 t printnum
00800270 t getuint
008002aa t sprintputch
008002c6 T printfmt
008002e3 T vprintfmt
0080066f T vsnprintf
008006c4 T snprintf
008006de T strlen
008006f4 T strnlen
00800713 T strcpy
0080072e T strcat
00800750 T strncpy
0080077a T strlcpy
008007b2 T strcmp
008007d3 T strncmp
00800806 T strchr
00800823 T strfind
0080083b T memset
00800888 T memmove
008008ee T memcpy
00800901 T memcmp
00800934 T memfind
00800955 T strtol
00800a3b T sys_cputs
00800a59 T sys_cgetc
00800a78 T sys_env_destroy
00800ab9 T sys_getenvid
00800ad8 T sys_yield
00800af7 T sys_page_alloc
00800b3a T sys_page_map
00800b7c T sys_page_unmap
00800bbe T sys_env_set_status
00800c00 T sys_time_msec
00800c1f T sys_env_set_trapframe
00800c61 T sys_env_set_pgfault_upcall
00800ca3 T sys_ipc_try_send
00800cc6 T sys_ipc_recv
00800d07 t pgfault
00800db9 T fork
00800fc3 T sfork
00800fdd T ipc_recv
00801045 T ipc_send
0080109a T ipc_find_env
008010de T _panic
00801124 T set_pgfault_handler
0080117b T _pgfault_upcall
008011a4 T __udivdi3
008012b4 T __umoddi3
00801700 r error_string
00802000 D binaryname
00802004 B thisenv
00802008 B _pgfault_handler
eec00000 A envs
ef000000 A pages
ef400000 A uvpt
ef7bd000 A uvpd
