00200010 R __STAB_BEGIN__
002037cc R __STAB_END__
002037cd R __STABSTR_BEGIN__
00205cb6 R __STABSTR_END__
00800020 T _start
0080002c t args_exist
00800033 T umain
008000fc T libmain
0080014b T exit
0080015d t putch
0080019e T vcprintf
008001ef T cprintf
00800203 t printnum
008002b0 t getuint
008002ea t sprintputch
00800306 T printfmt
00800323 T vprintfmt
008006af T vsnprintf
00800704 T snprintf
0080071e T strlen
00800734 T strnlen
00800753 T strcpy
0080076e T strcat
00800790 T strncpy
008007ba T strlcpy
008007f2 T strcmp
00800813 T strncmp
00800846 T strchr
00800863 T strfind
0080087b T memset
008008c8 T memmove
0080092e T memcpy
00800941 T memcmp
00800974 T memfind
00800995 T strtol
00800a7b T sys_cputs
00800a99 T sys_cgetc
00800ab8 T sys_env_destroy
00800af9 T sys_getenvid
00800b18 T sys_yield
00800b37 T sys_page_alloc
00800b7a T sys_page_map
00800bbc T sys_page_unmap
00800bfe T sys_env_set_status
00800c40 T sys_time_msec
00800c5f T sys_env_set_trapframe
00800ca1 T sys_env_set_pgfault_upcall
00800ce3 T sys_ipc_try_send
00800d06 T sys_ipc_recv
00800d47 t pgfault
00800df9 T fork
00801003 T sfork
0080101d T ipc_recv
00801085 T ipc_send
008010da T ipc_find_env
0080111e T _panic
00801164 T set_pgfault_handler
008011bb T _pgfault_upcall
008011e4 T __udivdi3
008012f4 T __umoddi3
00801760 r error_string
00802000 D binaryname
00802004 B val
00802008 B thisenv
0080200c B _pgfault_handler
eec00000 A envs
ef000000 A pages
ef400000 A uvpt
ef7bd000 A uvpd
