00200010 R __STAB_BEGIN__
00205c08 R __STAB_END__
00205c09 R __STABSTR_BEGIN__
002088f6 R __STABSTR_END__
00800020 T _start
0080002c t args_exist
00800033 T primeproc
0080017c T umain
0080023b T libmain
0080028a T exit
0080029c T _panic
008002e2 t putch
00800323 T vcprintf
00800374 T cprintf
00800388 t printnum
00800435 t getuint
0080046f t sprintputch
0080048b T printfmt
008004a8 T vprintfmt
00800834 T vsnprintf
00800889 T snprintf
008008a3 T strlen
008008b9 T strnlen
008008d8 T strcpy
008008f3 T strcat
00800915 T strncpy
0080093f T strlcpy
00800977 T strcmp
00800998 T strncmp
008009cb T strchr
008009e8 T strfind
00800a00 T memset
00800a4d T memmove
00800ab3 T memcpy
00800ac6 T memcmp
00800af9 T memfind
00800b1a T strtol
00800c00 T sys_cputs
00800c1e T sys_cgetc
00800c3d T sys_env_destroy
00800c7e T sys_getenvid
00800c9d T sys_yield
00800cbc T sys_page_alloc
00800cff T sys_page_map
00800d41 T sys_page_unmap
00800d83 T sys_env_set_status
00800dc5 T sys_time_msec
00800de4 T sys_env_set_trapframe
00800e26 T sys_env_set_pgfault_upcall
00800e68 T sys_ipc_try_send
00800e8b T sys_ipc_recv
00800ecc t pgfault
00800f7e T fork
00801188 T sfork
008011a2 T fd2num
008011b2 T fd2data
008011c9 T fd_alloc
00801218 T fd_lookup
0080126f T dev_lookup
008012c2 T fd_close
00801346 T close
00801371 T close_all
00801394 T dup
0080147e T read
00801505 T readn
0080154e T write
008015d0 T seek
008015f9 T ftruncate
00801678 T fstat
008016ec T stat
0080172b t fsipc
00801776 t devfile_trunc
008017a0 t devfile_flush
008017c2 t devfile_stat
0080181b t devfile_write
00801863 t devfile_read
008018e5 T open
0080196c T sync
00801983 t devpipe_stat
008019d1 t devpipe_close
008019fb t _pipeisclosed
00801a67 t devpipe_write
00801ad7 t devpipe_read
00801b46 T pipe
00801c93 T pipeisclosed
00801cc6 t devcons_close
00801cd0 t devcons_stat
00801cea t devcons_write
00801d3e t devcons_read
00801d7d T cputchar
00801d99 T getchar
00801dc4 T iscons
00801df0 T opencons
00801e42 T set_pgfault_handler
00801e99 T _pgfault_upcall
00801ec1 T ipc_recv
00801f29 T ipc_send
00801f7e T ipc_find_env
00801fc2 T pageref
00802008 T __udivdi3
00802118 T __umoddi3
00802600 r error_string
0080283c r devtab
00803000 D binaryname
00803004 D devfile
00803020 D devpipe
0080303c D devcons
00804000 b fsenv.1554
00804004 B thisenv
00805000 B fsipcbuf
00806000 B _pgfault_handler
eec00000 A envs
ef000000 A pages
ef400000 A uvpt
ef7bd000 A uvpd
