00200010 R __STAB_BEGIN__
002033f4 R __STAB_END__
002033f5 R __STABSTR_BEGIN__
002057e4 R __STABSTR_END__
00800020 T _start
0080002c t args_exist
00800033 T umain
008000f1 T libmain
00800140 T exit
00800152 T _panic
00800198 t putch
008001d9 T vcprintf
0080022a T cprintf
0080023e t printnum
008002eb t getuint
00800325 t sprintputch
00800341 T printfmt
0080035e T vprintfmt
008006ea T vsnprintf
0080073f T snprintf
00800759 T strlen
0080076f T strnlen
0080078e T strcpy
008007a9 T strcat
008007cb T strncpy
008007f5 T strlcpy
0080082d T strcmp
0080084e T strncmp
00800881 T strchr
0080089e T strfind
008008b6 T memset
00800903 T memmove
00800969 T memcpy
0080097c T memcmp
008009af T memfind
008009d0 T strtol
00800ab6 T sys_cputs
00800ad4 T sys_cgetc
00800af3 T sys_env_destroy
00800b34 T sys_getenvid
00800b53 T sys_yield
00800b72 T sys_page_alloc
00800bb5 T sys_page_map
00800bf7 T sys_page_unmap
00800c39 T sys_env_set_status
00800c7b T sys_time_msec
00800c9a T sys_env_set_trapframe
00800cdc T sys_env_set_pgfault_upcall
00800d1e T sys_ipc_try_send
00800d41 T sys_ipc_recv
00800d82 t pgfault
00800e34 T fork
0080103e T sfork
00801058 T set_pgfault_handler
008010af T _pgfault_upcall
008010d8 T __udivdi3
008011e8 T __umoddi3
00801660 r error_string
00802000 D binaryname
00802004 B counter
00802008 B thisenv
0080200c B _pgfault_handler
eec00000 A envs
ef000000 A pages
ef400000 A uvpt
ef7bd000 A uvpd
