00200010 R __STAB_BEGIN__
00202bd8 R __STAB_END__
00202bd9 R __STABSTR_BEGIN__
00204ec2 R __STABSTR_END__
00800020 T _start
0080002c t args_exist
00800033 T umain
008000d6 T libmain
00800125 T exit
00800137 T _panic
0080017d t putch
008001be T vcprintf
0080020f T cprintf
00800223 t printnum
008002d0 t getuint
0080030a t sprintputch
00800326 T printfmt
00800343 T vprintfmt
008006cf T vsnprintf
00800724 T snprintf
0080073e T strlen
00800754 T strnlen
00800773 T strcpy
0080078e T strcat
008007b0 T strncpy
008007da T strlcpy
00800812 T strcmp
00800833 T strncmp
00800866 T strchr
00800883 T strfind
0080089b T memset
008008e8 T memmove
0080094e T memcpy
00800961 T memcmp
00800994 T memfind
008009b5 T strtol
00800a9b T sys_cputs
00800ab9 T sys_cgetc
00800ad8 T sys_env_destroy
00800b19 T sys_getenvid
00800b38 T sys_yield
00800b57 T sys_page_alloc
00800b9a T sys_page_map
00800bdc T sys_page_unmap
00800c1e T sys_env_set_status
00800c60 T sys_time_msec
00800c7f T sys_env_set_trapframe
00800cc1 T sys_env_set_pgfault_upcall
00800d03 T sys_ipc_try_send
00800d26 T sys_ipc_recv
00800d68 T __udivdi3
00800e78 T __umoddi3
00801380 r error_string
00802000 D binaryname
00802020 B bigarray
00c02020 B thisenv
eec00000 A envs
ef000000 A pages
ef400000 A uvpt
ef7bd000 A uvpd
