+ ld obj/kern/kernel
+ mk obj/kern/kernel.img

(process:25784): GLib-WARNING **: gmem.c:482: custom memory allocation vtable not supported

(process:25788): GLib-WARNING **: gmem.c:482: custom memory allocation vtable not supported
451 decimal is 703 octal!
CPU: QEMU Virtual CPU version 2.3.0
  fpu pse tsc msr pae mce cx8 apic sep pge cmov pat mmx fxsr sse sse2
  sse3 popcnt hypervisor
E820: physical memory map [mem 0x00009000-0x000090a7]
  [mem 0x00000000-0x0009fbff] available
  [mem 0x0009fc00-0x0009ffff] reserved
  [mem 0x000f0000-0x000fffff] reserved
  [mem 0x00100000-0x07fdefff] available
  [mem 0x07fdf000-0x07ffffff] reserved
  [mem 0xb0000000-0xbfffffff] reserved
  [mem 0xfffc0000-0xffffffff] reserved
E820: physical memory 128MB
npages: 32768
check_page_alloc() succeeded!
mm1 is: 0xef800000
mm2 is: 0xef802000
check_page() succeeded!
In mem_init(), UENVS is 0xeec00000, and envs is: 0xf02b8000



check_kern_pgdir() succeeded!
check_page_installed_pgdir() succeeded!
After env_init
Print CPU_id: 0
ACPI: RSDP 0x000f62d0 000014 v00 BOCHS 
ACPI: RSDT 0x07fe2222 000038 v01 BOCHS  BXPCRSDT 01 BXPC 01
ACPI: FACP 0x07fe1df8 000074 v01 BOCHS  BXPCFACP 01 BXPC 01
ACPI: SSDT 0x07fe1e6c 0002ca v01 BOCHS  BXPCSSDT 01 BXPC 01
ACPI: APIC 0x07fe2136 000078 v01 BOCHS  BXPCAPIC 01 BXPC 01
ACPI: HPET 0x07fe21ae 000038 v01 BOCHS  BXPCHPET 01 BXPC 01
ACPI: MCFG 0x07fe21e6 00003c v01 BOCHS  BXPCMCFG 01 BXPC 01
SMP: 1 CPU(s)
SMP: LAPIC 0xfee00000 v14
SMP: IOAPIC 0xfec00000 v11 [global_irq 00-23]
PCI: 00:00.0 8086:29c0 06.00.00 Bridge device
PCI: 00:01.0 1234:1111 03.00.00 Display controller
PCI: 00:02.0 8086:100e 02.00.00 Network controller
PCI: 00:03.0 8086:7111 01.01.80 Mass storage controller
PCI: 00:1f.0 8086:2918 06.01.00 Bridge device
PCI: 00:1f.2 8086:2922 01.06.01 Mass storage controller
  BAR 4 [port 0xc080-0xc09f]
  BAR 5 [mem 0xfebf1000-0xfebf1fff]
PCI function 00:1f.2 (8086:2922) enabled
PCI: 00:1f.3 8086:2930 0c.05.00 Serial bus controller
[00000000] new env 00001000
[00000000] new env 00001001
[00001001] new env 00001002
2
[00001002] new env 00001003
3
[00001003] new env 00001004
5
FS is running
AHCI.0: 4194304 bytes
FS can do I/O
block cache is good
superblock is good
bitmap is good
alloc_block is good
file_open is good
file_get_block is good
file_flush is good
file_truncate is good
file rewrite is good
[00001004] new env 00001005
7
[00001005] new env 00001006
11
[00001006] new env 00001007
13
[00001007] new env 00001008
17
[00001008] new env 00001009
19
[00001009] new env 0000100a
23
[0000100a] new env 0000100b
29
[0000100b] new env 0000100c
31
[0000100c] new env 0000100d
37
[0000100d] new env 0000100e
41
[0000100e] new env 0000100f
43
[0000100f] new env 00001010
47
[00001010] new env 00001011
53
[00001011] new env 00001012
59
[00001012] new env 00001013
61
[00001013] new env 00001014
67
[00001014] new env 00001015
71
[00001015] new env 00001016
73
[00001016] new env 00001017
79
[00001017] new env 00001018
83
[00001018] new env 00001019
89
[00001019] new env 0000101a
97
[0000101a] new env 0000101b
101
[0000101b] new env 0000101c
103
[0000101c] new env 0000101d
107
[0000101d] new env 0000101e
109
[0000101e] new env 0000101f
113
[0000101f] new env 00001020
127
[00001020] new env 00001021
131
[00001021] new env 00001022
137
[00001022] new env 00001023
139
[00001023] new env 00001024
149
[00001024] new env 00001025
151
[00001025] new env 00001026
157
[00001026] new env 00001027
163
[00001027] new env 00001028
167
[00001028] new env 00001029
173
[00001029] new env 0000102a
179
[0000102a] new env 0000102b
181
[0000102b] new env 0000102c
191
[0000102c] new env 0000102d
193
[0000102d] new env 0000102e
197
[0000102e] new env 0000102f
199
[0000102f] new env 00001030
211
[00001030] new env 00001031
223
[00001031] new env 00001032
227
[00001032] new env 00001033
229
[00001033] new env 00001034
233
[00001034] new env 00001035
239
[00001035] new env 00001036
241
[00001036] new env 00001037
251
[00001037] new env 00001038
257
[00001038] new env 00001039
263
[00001039] new env 0000103a
269
[0000103a] new env 0000103b
271
[0000103b] new env 0000103c
277
[0000103c] new env 0000103d
281
[0000103d] new env 0000103e
283
[0000103e] new env 0000103f
293
[0000103f] new env 00001040
307
[00001040] new env 00001041
311
[00001041] new env 00001042
313
[00001042] new env 00001043
317
[00001043] new env 00001044
331
[00001044] new env 00001045
337
[00001045] new env 00001046
347
[00001046] new env 00001047
349
[00001047] new env 00001048
353
[00001048] new env 00001049
359
[00001049] new env 0000104a
367
[0000104a] new env 0000104b
373
[0000104b] new env 0000104c
379
[0000104c] new env 0000104d
383
[0000104d] new env 0000104e
389
[0000104e] new env 0000104f
397
[0000104f] new env 00001050
401
[00001050] new env 00001051
409
[00001051] new env 00001052
419
[00001052] new env 00001053
421
[00001053] new env 00001054
431
[00001054] new env 00001055
433
[00001055] new env 00001056
439
[00001056] new env 00001057
443
[00001057] new env 00001058
449
[00001058] new env 00001059
457
[00001059] new env 0000105a
461
[0000105a] new env 0000105b
463
[0000105b] new env 0000105c
467
[0000105c] new env 0000105d
479
[0000105d] new env 0000105e
487
[0000105e] new env 0000105f
491
[0000105f] new env 00001060
499
[00001060] new env 00001061
503
[00001061] new env 00001062
509
[00001062] new env 00001063
521
[00001063] new env 00001064
523
[00001064] new env 00001065
541
[00001065] new env 00001066
547
[00001066] new env 00001067
557
[00001067] new env 00001068
563
[00001068] new env 00001069
569
[00001069] new env 0000106a
571
[0000106a] new env 0000106b
577
[0000106b] new env 0000106c
587
[0000106c] new env 0000106d
593
[0000106d] new env 0000106e
599
[0000106e] new env 0000106f
601
[0000106f] new env 00001070
607
[00001070] new env 00001071
613
[00001071] new env 00001072
617
[00001072] new env 00001073
619
[00001073] new env 00001074
631
[00001074] new env 00001075
641
[00001075] new env 00001076
643
[00001076] new env 00001077
647
[00001077] new env 00001078
653
[00001078] new env 00001079
659
[00001079] new env 0000107a
661
[0000107a] new env 0000107b
673
[0000107b] new env 0000107c
677
[0000107c] new env 0000107d
683
[0000107d] new env 0000107e
691
[0000107e] new env 0000107f
701
[0000107f] new env 00001080
709
[00001080] new env 00001081
719
[00001081] new env 00001082
727
[00001082] new env 00001083
733
[00001083] new env 00001084
739
[00001084] new env 00001085
743
[00001085] new env 00001086
751
[00001086] new env 00001087
757
[00001087] new env 00001088
761
[00001088] new env 00001089
769
[00001089] new env 0000108a
773
[0000108a] new env 0000108b
787
[0000108b] new env 0000108c
797
[0000108c] new env 0000108d
809
[0000108d] new env 0000108e
811
[0000108e] new env 0000108f
821
[0000108f] new env 00001090
823
[00001090] new env 00001091
827
[00001091] new env 00001092
829
[00001092] new env 00001093
839
[00001093] new env 00001094
853
[00001094] new env 00001095
857
[00001095] new env 00001096
859
[00001096] new env 00001097
863
[00001097] new env 00001098
877
[00001098] new env 00001099
881
[00001099] new env 0000109a
883
[0000109a] new env 0000109b
887
[0000109b] new env 0000109c
907
[0000109c] new env 0000109d
911
[0000109d] new env 0000109e
919
[0000109e] new env 0000109f
929
[0000109f] new env 000010a0
937
[000010a0] new env 000010a1
941
[000010a1] new env 000010a2
947
[000010a2] new env 000010a3
953
[000010a3] new env 000010a4
967
[000010a4] new env 000010a5
971
[000010a5] new env 000010a6
977
[000010a6] new env 000010a7
983
[000010a7] new env 000010a8
991
[000010a8] new env 000010a9
997
[000010a9] new env 000010aa
1009
qemu: terminating on signal 15 from pid 25699
