00200010 R __STAB_BEGIN__
00202590 R __STAB_END__
00202591 R __STABSTR_BEGIN__
00203c12 R __STABSTR_END__
00800020 T _start
0080002c t args_exist
00800033 T umain
0080005e T libmain
008000e8 T exit
008000fa t putch
0080013b T vcprintf
0080018c T cprintf
008001a0 t printnum
0080024d t getuint
00800287 t sprintputch
008002a3 T printfmt
008002c0 T vprintfmt
0080064c T vsnprintf
008006a1 T snprintf
008006bb T strlen
008006d1 T strnlen
008006f0 T strcpy
0080070b T strcat
0080072d T strncpy
00800757 T strlcpy
0080078f T strcmp
008007b0 T strncmp
008007e3 T strchr
00800800 T strfind
00800818 T memset
00800865 T memmove
008008cb T memcpy
008008de T memcmp
00800911 T memfind
00800932 T strtol
00800a18 T sys_cputs
00800a36 T sys_cgetc
00800a55 T sys_env_destroy
00800a96 T sys_getenvid
00800ab5 T _panic
00800afc T __udivdi3
00800c0c T __umoddi3
00800fcc r error_string
00802000 D binaryname
00802004 B thisenv
eec00000 A envs
ef000000 A pages
ef400000 A uvpt
ef7bd000 A uvpd
